#########################################
https://www.fortuneo.fr/checkacces
FORTUNEO_HTTP=950b2eb33e8b7f1b2a6225168a45b7909d478fc0d7212ee227b85750ab4c57e983933c6b9921fa0f; JSESSIONID=A22796799FEDA96C675578457C8D5B5D.ffront1a
HTTP/1.0 302 Moved Temporarily
Date: Tue, 07 Jun 2011 07:02:51 GMT
Server: GICM-WebHub
X-OpTier-Request-Uuid: c172f496-5bb7-49e2-a33d-afd6605d7928
Location: https://www.fortuneo.fr/fr/bourse/bienvenue.jsp
Content-Length: 0
X-ARKEA-WebHub-Diag: t=1307430171151409 D=70318
X-ARKEA-WebHub-Route: h=aphost-10 r=ffront1a w=http://10.154.245.214:40022
X-ARKEA-WebHub-URI: u=/checkacces
X-ARKEA-WebHub-Version: $Revision: 1.74 $/$Revision: 1.55 $/1306253194.6
Vary: User-Agent
Cache-Control: no-store, no-cache
Content-Type: text/plain
Set-Cookie: FORTUNEO_HTTP=""; Version=1; Max-Age=0; Expires=Thu, 01-Jan-1970 00:00:10 GMT; Path=/
Set-Cookie: FORTUNEO_HTTPS=df671a8f5e695f13e3907c0ce7c68831a976cae7eca7918a30210764bbbd8215038033de292f8a85c0c80f3f03bd0803; Version=1; Path=/; Secure
X-ARKEA-Diag: t=1307430171189861 D=71806
Connection: close


