https://www.secure.bnpparibas.net/banque/portail/!ut/p/kcxml/04_Sj9SPykssy0xPLMnMz0vM0Y_QjzKLN4038wfJgFku-pFoIs6oIgbxjnABb31fj_zcVP0A_YLc0NCIckdFAD-pIQQ!/delta/base64xml/L0lDU0lKQ1RPN29na21DU1Evb0tvUUFBSVFnakZJQUFRaENFSVFqR0VKemdBIS80SkZpQ28wZWgxaWNvblFWR2hkLXNJZDJFQSEhLzdfNV8xNEUvMTAxOTU1MS9zYS5JZGVudGlmaWNhdGlvbkdyYXBoaXF1ZQ!!?time=1298221135%22%2F%26gt%3B%0D%0A%09%09%09%09%09%09%09%09%09%09%09%26lt%3Binput+type%3D%22hidden%22+name%3D%22act%22+value%3D%22actionParValidationEntree%22%2F%26gt%3B%0D%0A%09%09%09%09%09%09%09%09%09%09%09%26lt%3Binput+type%3D%22hidden%22+name%3D%22outil%22+value%3D%22IdentificationGraphique%22%2F%26gt%3B%0D%0A%09%09%09%09%09%09%09%09%09%09%09%26lt%3Binput+type%3D%22hidden%22+name%3D%22etape%22+value%3D%221%22%2F%26gt%3B%0D%0A%09%09%09%09%09%09%09%09%09%09%09%26lt%3Binput+type%3D%22hidden%22+name%3D%22bouton%22+value%3D%22espece%22%2F%26gt%3B%0D%0A%09%09%09%09%09%09%09%09%09%09%09%26lt%3Binput+type%3Dhidden+value%3D%22%22+name%3D%22ch5%22%2F%26gt%3B%0D%0A%09%09%09%09%09%09%09%09%09%0D%0A%09%09%09%09%09%09%09%09%09%09%09%26lt%3Btable+cellspacing%3D%220%22+cellpadding%3D%220%22+border%3D%220%22+width%3D%22490&act=actionParValidationEntree&layout=HomeConnexion&bouton=espece&etape=1&ch5=081701070114&homeConnexionId=secure_bnpparibas_net_20021206152735&outil=IdentificationGraphique&ch1=3294304345&y=5&x=25&site=particulier&
JSESSIONID=0000kFAMbWt9sdEaa6462jG7KU2:1157ov4dj
HTTP/1.1 200 OK
Date: Sun, 20 Feb 2011 17:02:36 GMT
Server: IBM_HTTP_Server
Cache-Control: no-cache
Expires: Thu, 01 Jan 1970 00:00:00 GMT
Pragma: no-cache
Vary: User-Agent
Transfer-Encoding: chunked
Content-Type: text/html; charset=ISO-8859-1




