----------------------------------------------------------------
Logs-in OK but the amounts are not directly on the summary page anymore
----------------------------------------------------------------
Actualy, the code already deals with that :-)
----------------------------------------------------------------
----------------------------------------------------------------
